┌─────────┬─────────────────────┬─────────────────────┬──────────────┬──────────────┬──────────────┬──────────────┐
│  type   │   pickup_datetime   │  dropOff_datetime   │ duration_min │ duration_sec │ PUlocationID │ DOlocationID │
│ varchar │      timestamp      │      timestamp      │    int64     │    int64     │    double    │    double    │
├─────────┼─────────────────────┼─────────────────────┼──────────────┼──────────────┼──────────────┼──────────────┤
│ fhv     │ 2020-03-19 09:14:45 │ 2020-03-19 09:25:18 │           11 │          633 │              │        174.0 │
│ fhv     │ 2020-03-19 09:37:20 │ 2020-03-19 09:50:46 │           13 │          806 │              │         81.0 │
│ fhv     │ 2020-03-19 09:59:48 │ 2020-03-19 10:18:13 │           19 │         1105 │              │        213.0 │
│ fhv     │ 2020-03-19 09:02:21 │ 2020-03-19 09:17:09 │           15 │          888 │              │         18.0 │
│ fhv     │ 2020-03-19 09:27:51 │ 2020-03-19 09:43:04 │           16 │          913 │              │        242.0 │
│ fhv     │ 2020-03-19 09:13:14 │ 2020-03-19 09:29:23 │           16 │          969 │              │         60.0 │
│ fhv     │ 2020-03-19 09:15:47 │ 2020-03-19 09:30:09 │           15 │          862 │              │        174.0 │
│ fhv     │ 2020-03-19 09:04:41 │ 2020-03-19 09:29:29 │           25 │         1488 │              │        242.0 │
│ fhv     │ 2020-03-19 09:49:03 │ 2020-03-19 09:58:32 │            9 │          569 │              │        182.0 │
│ fhv     │ 2020-03-19 09:02:15 │ 2020-03-19 09:57:40 │           55 │         3325 │              │         76.0 │
│ fhv     │ 2020-03-19 09:32:45 │ 2020-03-19 09:42:39 │           10 │          594 │              │        220.0 │
│ fhv     │ 2020-03-19 09:59:12 │ 2020-03-19 10:13:55 │           14 │          883 │              │        185.0 │
│ fhv     │ 2020-03-19 09:26:36 │ 2020-03-19 09:35:43 │            9 │          547 │              │        242.0 │
│ fhv     │ 2020-03-19 09:50:07 │ 2020-03-19 10:17:44 │           27 │         1657 │              │        174.0 │
│ fhv     │ 2020-03-19 09:18:00 │ 2020-03-19 09:24:22 │            6 │          382 │              │         51.0 │
│ fhv     │ 2020-03-19 09:30:14 │ 2020-03-19 09:44:42 │           14 │          868 │              │         78.0 │
│ fhv     │ 2020-03-19 09:31:30 │ 2020-03-19 09:44:07 │           13 │          757 │              │        174.0 │
│ fhv     │ 2020-03-19 09:00:07 │ 2020-03-19 09:10:43 │           10 │          636 │              │         81.0 │
│ fhv     │ 2020-03-19 09:29:19 │ 2020-03-19 09:42:27 │           13 │          788 │              │        126.0 │
│ fhv     │ 2020-03-19 09:37:04 │ 2020-03-19 09:49:27 │           12 │          743 │              │        220.0 │
│  ·      │          ·          │          ·          │            · │           ·  │      ·       │          ·   │
│  ·      │          ·          │          ·          │            · │           ·  │      ·       │          ·   │
│  ·      │          ·          │          ·          │            · │           ·  │      ·       │          ·   │
│ fhv     │ 2020-01-30 14:20:07 │ 2020-01-30 14:26:55 │            6 │          408 │              │        228.0 │
│ fhv     │ 2020-01-30 14:55:19 │ 2020-01-30 15:20:16 │           25 │         1497 │              │         26.0 │
│ fhv     │ 2020-01-30 14:39:51 │ 2020-01-30 15:02:29 │           23 │         1358 │              │         14.0 │
│ fhv     │ 2020-01-30 14:02:40 │ 2020-01-30 14:13:11 │           11 │          631 │              │        228.0 │
│ fhv     │ 2020-01-30 14:01:01 │ 2020-01-30 14:08:44 │            7 │          463 │              │         26.0 │
│ fhv     │ 2020-01-30 14:13:09 │ 2020-01-30 14:39:53 │           26 │         1604 │              │        217.0 │
│ fhv     │ 2020-01-30 14:35:17 │ 2020-01-30 14:44:59 │            9 │          582 │              │         36.0 │
│ fhv     │ 2020-01-30 14:07:23 │ 2020-01-30 14:13:36 │            6 │          373 │              │         14.0 │
│ fhv     │ 2020-01-30 14:49:21 │ 2020-01-30 15:08:00 │           19 │         1119 │              │        181.0 │
│ fhv     │ 2020-01-30 14:58:54 │ 2020-01-30 15:07:45 │            9 │          531 │              │        133.0 │
│ fhv     │ 2020-01-30 14:43:39 │ 2020-01-30 14:47:39 │            4 │          240 │              │        227.0 │
│ fhv     │ 2020-01-30 14:43:44 │ 2020-01-30 14:58:31 │           15 │          887 │              │         26.0 │
│ fhv     │ 2020-01-30 14:30:00 │ 2020-01-30 15:11:00 │           41 │         2460 │              │              │
│ fhv     │ 2020-01-30 14:00:00 │ 2020-01-30 14:46:00 │           46 │         2760 │              │              │
│ fhv     │ 2020-01-30 14:28:11 │ 2020-01-30 14:48:32 │           20 │         1221 │              │        155.0 │
│ fhv     │ 2020-01-30 14:18:25 │ 2020-01-30 14:25:01 │            7 │          396 │              │        155.0 │
│ fhv     │ 2020-01-30 15:36:00 │ 2020-01-30 15:45:00 │            9 │          540 │              │              │
│ fhv     │ 2020-01-30 15:04:00 │ 2020-01-30 15:23:00 │           19 │         1140 │              │              │
│ fhv     │ 2020-01-30 15:31:00 │ 2020-01-30 17:47:00 │          136 │         8160 │              │              │
│ fhv     │ 2020-07-01 10:10:20 │ 2020-07-01 10:34:52 │           24 │         1472 │              │        145.0 │
├─────────┴─────────────────────┴─────────────────────┴──────────────┴──────────────┴──────────────┴──────────────┤
│ 1588827 rows (40 shown)                                                                               7 columns │
└─────────────────────────────────────────────────────────────────────────────────────────────────────────────────┘
