D .read nyc_transit/target/compiled/nyc_transit/analyses/yellow_taxi_fare_comparison.sql                                 
100% ?████████████████████████████████████████████████████████████? 
┌──────────────────────┬─────────────┬───────────┬───┬────────────────────┬────────────────────┬────────────────────┐    
│ tpep_pickup_datetime │ fare_amount │  Borough  │ . │  avg_fare_borough  │   avg_fare_zone    │  avg_fare_overall  │    
│      timestamp       │   double    │  varchar  │   │       double       │       double       │       double       │    
├──────────────────────┼─────────────┼───────────┼───┼────────────────────┼────────────────────┼────────────────────┤    
│ 2020-09-03 16:09:21  │         5.5 │ Manhattan │ . │ 10.988555606502796 │ 10.265450130854743 │ 12.929639743352471 │    
│ 2020-09-03 16:23:46  │         7.0 │ Manhattan │ . │ 10.988555606502796 │ 10.265450130854743 │ 12.929639743352471 │    
│ 2020-09-03 16:42:16  │        11.0 │ Manhattan │ . │ 10.988555606502796 │ 10.265450130854743 │ 12.929639743352471 │    
│ 2020-09-03 16:19:36  │         9.5 │ Manhattan │ . │ 10.988555606502796 │ 10.265450130854743 │ 12.929639743352471 │    
│ 2020-09-03 16:25:44  │         5.5 │ Manhattan │ . │ 10.988555606502796 │ 10.265450130854743 │ 12.929639743352471 │    
│ 2020-09-03 16:50:37  │         7.0 │ Manhattan │ . │ 10.988555606502796 │ 10.265450130854743 │ 12.929639743352471 │    
│ 2020-09-03 16:50:13  │        16.5 │ Manhattan │ . │ 10.988555606502796 │ 10.265450130854743 │ 12.929639743352471 │    
│ 2020-09-03 16:14:39  │        14.0 │ Manhattan │ . │ 10.988555606502796 │ 10.265450130854743 │ 12.929639743352471 │    
│ 2020-09-03 16:40:23  │         4.0 │ Manhattan │ . │ 10.988555606502796 │ 10.265450130854743 │ 12.929639743352471 │    
│ 2020-09-03 16:13:51  │         5.5 │ Manhattan │ . │ 10.988555606502796 │ 10.265450130854743 │ 12.929639743352471 │    
│ 2020-09-03 16:27:31  │         4.5 │ Manhattan │ . │ 10.988555606502796 │ 10.265450130854743 │ 12.929639743352471 │    
│ 2020-09-03 16:02:23  │         5.5 │ Manhattan │ . │ 10.988555606502796 │ 10.265450130854743 │ 12.929639743352471 │    
│ 2020-09-03 16:57:41  │        18.0 │ Manhattan │ . │ 10.988555606502796 │ 10.265450130854743 │ 12.929639743352471 │    
│ 2020-09-03 16:33:52  │         8.0 │ Manhattan │ . │ 10.988555606502796 │ 10.265450130854743 │ 12.929639743352471 │    
│ 2020-09-03 16:11:32  │         3.5 │ Manhattan │ . │ 10.988555606502796 │ 10.265450130854743 │ 12.929639743352471 │    
│ 2020-09-03 16:13:13  │        10.5 │ Manhattan │ . │ 10.988555606502796 │ 10.265450130854743 │ 12.929639743352471 │    
│ 2020-09-03 16:07:03  │         7.0 │ Manhattan │ . │ 10.988555606502796 │ 10.265450130854743 │ 12.929639743352471 │    
│ 2020-09-03 16:48:21  │        14.0 │ Manhattan │ . │ 10.988555606502796 │ 10.265450130854743 │ 12.929639743352471 │    
│ 2020-09-03 16:52:35  │        24.5 │ Manhattan │ . │ 10.988555606502796 │ 10.265450130854743 │ 12.929639743352471 │    
│ 2020-09-03 16:35:43  │        12.5 │ Manhattan │ . │ 10.988555606502796 │ 10.265450130854743 │ 12.929639743352471 │    
│          ·           │          ·  │    ·      │ · │          ·         │          ·         │          ·         │    
│          ·           │          ·  │    ·      │ · │          ·         │          ·         │          ·         │    
│          ·           │          ·  │    ·      │ · │          ·         │          ·         │          ·         │    
│ 2020-08-19 21:06:18  │        33.0 │ Brooklyn  │ . │  23.63901703206826 │ 21.650155763239958 │ 12.929639743352471 │    
│ 2020-08-23 19:11:13  │        19.2 │ Brooklyn  │ . │  23.63901703206826 │ 21.650155763239958 │ 12.929639743352471 │    
│ 2021-09-10 17:08:20  │        28.2 │ Brooklyn  │ . │  23.63901703206826 │ 21.650155763239958 │ 12.929639743352471 │    
│ 2021-09-11 19:20:57  │         9.0 │ Brooklyn  │ . │  23.63901703206826 │ 21.650155763239958 │ 12.929639743352471 │    
│ 2021-09-13 12:39:40  │        10.0 │ Brooklyn  │ . │  23.63901703206826 │ 21.650155763239958 │ 12.929639743352471 │    
│ 2020-08-06 02:08:00  │        45.7 │ Brooklyn  │ . │  23.63901703206826 │ 21.650155763239958 │ 12.929639743352471 │    
│ 2020-08-06 03:36:00  │        56.5 │ Brooklyn  │ . │  23.63901703206826 │ 21.650155763239958 │ 12.929639743352471 │    
│ 2020-08-06 04:54:00  │       22.67 │ Brooklyn  │ . │  23.63901703206826 │ 21.650155763239958 │ 12.929639743352471 │    
│ 2020-08-06 06:07:00  │       20.87 │ Brooklyn  │ . │  23.63901703206826 │ 21.650155763239958 │ 12.929639743352471 │    
│ 2020-08-06 08:40:00  │       27.76 │ Brooklyn  │ . │  23.63901703206826 │ 21.650155763239958 │ 12.929639743352471 │    
│ 2020-08-06 09:41:00  │       16.23 │ Brooklyn  │ . │  23.63901703206826 │ 21.650155763239958 │ 12.929639743352471 │    
│ 2020-08-06 09:38:00  │       25.77 │ Brooklyn  │ . │  23.63901703206826 │ 21.650155763239958 │ 12.929639743352471 │    
│ 2020-08-06 09:43:50  │       18.97 │ Brooklyn  │ . │  23.63901703206826 │ 21.650155763239958 │ 12.929639743352471 │    
│ 2020-08-06 11:01:30  │       11.45 │ Brooklyn  │ . │  23.63901703206826 │ 21.650155763239958 │ 12.929639743352471 │    
│ 2020-08-06 11:20:45  │       45.65 │ Brooklyn  │ . │  23.63901703206826 │ 21.650155763239958 │ 12.929639743352471 │    
│ 2020-08-10 09:07:00  │       18.45 │ Brooklyn  │ . │  23.63901703206826 │ 21.650155763239958 │ 12.929639743352471 │    
│ 2020-08-10 11:48:00  │       15.94 │ Brooklyn  │ . │  23.63901703206826 │ 21.650155763239958 │ 12.929639743352471 │    
│ 2020-08-10 13:29:35  │       10.11 │ Brooklyn  │ . │  23.63901703206826 │ 21.650155763239958 │ 12.929639743352471 │    
│ 2020-08-10 13:55:00  │       28.95 │ Brooklyn  │ . │  23.63901703206826 │ 21.650155763239958 │ 12.929639743352471 │    
│ 2020-08-10 16:24:00  │       18.45 │ Brooklyn  │ . │  23.63901703206826 │ 21.650155763239958 │ 12.929639743352471 │    
├──────────────────────┴─────────────┴───────────┴───┴────────────────────┴────────────────────┴────────────────────┤    
│ 5454972 rows (40 shown)                                                                       7 columns (6 shown) │    
└───────────────────────────────────────────────────────────────────────────────────────────────────────────────────┘    
